{
  "colors": [
    {
      "id": 1,
      "name": "red",
      "hexCode": "FF0000"
    },
    {
      "id": 2,
      "name": "green",
      "hexCode": "00FF00"
    },
    {
      "id": 3,
      "name": "blue",
      "hexCode": "0000FF"
    },
    {
      "name": "a",
      "hexCode": "a",
      "colorInfo": {
        "shade": "test1",
        "color": "test2"
      },
      "id": 4
    },
    {
      "name": "b",
      "hexCode": "b",
      "colorInfo": {
        "shade": "test1",
        "color": "test2"
      },
      "id": 5
    },
    {
      "name": "C",
      "hexCode": "C",
      "colorInfo": {
        "shade": "test1",
        "color": "test2"
      },
      "id": 6
    }
  ],
  "cars": []
}